^C:\USERS\REV\DESKTOP\개인폴더\김민규\자료구조\DS 18\3\MAIN.C
C:\USERS\REV\DESKTOP\개인폴더\김민규\자료구조\DS 18\3\DEBUG\VC120.PDB
C:\USERS\REV\DESKTOP\개인폴더\김민규\자료구조\DS 18\3\DEBUG\VC120.IDB
C:\USERS\REV\DESKTOP\개인폴더\김민규\자료구조\DS 18\3\DEBUG\MAIN.OBJ
